Verilog Diseño de una interfaz serial periférica (SPI)/test.vcd
$date
	Thu Jul 20 16:59:23 2023
$end
$version
	Icarus Verilog
$end
$timescale
	1s
$end
$scope module SPI_tb $end
$scope module SPI1 $end
$var wire 1 ! miso $end
$var wire 1 " mosi $end
$var wire 8 # received_data_master [7:0] $end
$var wire 8 $ received_data_slave [7:0] $end
$var wire 1 % sck $end
$var wire 1 & ss $end
$var reg 1 ' ckp $end
$var reg 1 ( clk $end
$var reg 1 ) cph $end
$var reg 1 * reset $end
$scope module SPImaster $end
$var wire 1 + ckp $end
$var wire 1 , clk $end
$var wire 1 - cph $end
$var wire 1 ! miso $end
$var wire 1 . reset $end
$var reg 8 / carne [7:0] $end
$var reg 8 0 clkdiv [7:0] $end
$var reg 1 1 cs $end
$var reg 8 2 data1 [7:0] $end
$var reg 8 3 data_temp [7:0] $end
$var reg 8 4 index [7:0] $end
$var reg 1 5 mosi $end
$var reg 1 6 sck $end
$var reg 2 7 state [1:0] $end
$upscope $end
$scope module SPIslave $end
$var wire 1 " mosi $end
$var wire 1 % sck $end
$var wire 1 & ss $end
$var reg 8 8 carne [7:0] $end
$var reg 8 9 data [7:0] $end
$var reg 8 : data_temp [7:0] $end
$var reg 8 ; index [7:0] $end
$var reg 1 < miso $end
$var reg 2 = state [1:0] $end
$upscope $end
$upscope $end
$upscope $end
$enddefinitions $end
#0
$dumpvars
b0 =
0<
b111 ;
b0 :
bx 9
b110 8
b1 7
06
05
b111 4
b0 3
bx 2
11
b0 0
b1000 /
1.
1-
0,
1+
1*
1)
0(
1'
1&
0%
bx $
bx #
0"
0!
$end
#4
b1 0
1(
1,
#8
0(
0,
#12
b10 0
1(
1,
#16
0(
0,
#20
b11 0
1(
1,
#24
0(
0,
#28
b10 7
b110 4
01
0&
16
1%
b0 0
1(
1,
#32
0(
0,
#36
b1 0
1(
1,
#40
0(
0,
#44
b10 0
1(
1,
#48
0(
0,
#52
b11 0
1(
1,
#56
0(
0,
#60
b10 =
b110 ;
b0 :
b0 3
b101 4
06
0%
b0 0
1(
1,
#64
0(
0,
#68
b1 0
1(
1,
#72
0(
0,
#76
b10 0
1(
1,
#80
0(
0,
#84
b11 0
1(
1,
#88
0(
0,
#92
b0 3
b100 4
b0 :
b101 ;
16
1%
b0 0
1(
1,
#96
0(
0,
#100
b1 0
1(
1,
#104
0(
0,
#108
b10 0
1(
1,
#112
0(
0,
#116
b11 0
1(
1,
#120
0(
0,
#124
b0 :
b100 ;
b0 3
b11 4
06
0%
b0 0
1(
1,
#128
0(
0,
#132
b1 0
1(
1,
#136
0(
0,
#140
b10 0
1(
1,
#144
0(
0,
#148
b11 0
1(
1,
#152
0(
0,
#156
b0 3
b10 4
15
1"
b0 :
b11 ;
16
1%
b0 0
1(
1,
#160
0(
0,
#164
b1 0
1(
1,
#168
0(
0,
#172
b10 0
1(
1,
#176
0(
0,
#180
b11 0
1(
1,
#184
0(
0,
#188
b1000 :
b10 ;
b0 3
b1 4
05
0"
06
0%
b0 0
1(
1,
#192
0(
0,
#196
b1 0
1(
1,
#200
0(
0,
#204
b10 0
1(
1,
#208
0(
0,
#212
b11 0
1(
1,
#216
0(
0,
#220
b0 3
b0 4
b1000 :
b1 ;
1<
1!
16
1%
b0 0
1(
1,
#224
0(
0,
#228
b1 0
1(
1,
#232
0(
0,
#236
b10 0
1(
1,
#240
0(
0,
#244
b11 0
1(
1,
#248
0(
0,
#252
b1000 :
b0 ;
b11 7
b10 /
06
0%
b0 0
1(
1,
#256
0(
0,
#260
b1 0
1(
1,
#264
0(
0,
#268
b10 0
1(
1,
#272
0(
0,
#276
b11 0
1(
1,
#280
0(
0,
#284
b0 7
11
1&
b111 4
b0 2
b0 #
b1000 :
b11111111 ;
b11 =
16
1%
b0 0
1(
1,
#288
0(
0,
#292
b1 0
1(
1,
#296
0(
0,
#300
b10 0
1(
1,
#304
0(
0,
#308
b11 0
1(
1,
#312
0(
0,
#316
b0 =
b111 ;
b0 :
b1000 9
b1000 $
b1 7
b11 8
06
0%
b0 0
1(
1,
#320
0(
0,
#324
b1 0
1(
1,
#328
0(
0,
#332
b10 0
1(
1,
#336
0(
0,
#340
b11 0
1(
1,
#344
0(
0,
#348
b10 7
b110 4
01
0&
16
1%
b0 0
1(
1,
#352
0(
0,
#356
b1 0
1(
1,
#360
0(
0,
#364
b10 0
1(
1,
#368
0(
0,
#372
b11 0
1(
1,
#376
0(
0,
#380
b10 =
b110 ;
b0 :
b1000000 3
b101 4
06
0%
b0 0
1(
1,
#384
0(
0,
#388
b1 0
1(
1,
#392
0(
0,
#396
b10 0
1(
1,
#400
0(
0,
#404
b11 0
1(
1,
#408
0(
0,
#412
b1100000 3
b100 4
b0 :
b101 ;
0<
0!
16
1%
b0 0
1(
1,
#416
0(
0,
#420
b1 0
1(
1,
#424
0(
0,
#428
b10 0
1(
1,
#432
0(
0,
#436
b11 0
1(
1,
#440
0(
0,
#444
b0 :
b100 ;
b1100000 3
b11 4
06
0%
b0 0
1(
1,
#448
0(
0,
#452
b1 0
1(
1,
#456
0(
0,
#460
b10 0
1(
1,
#464
0(
0,
#468
b11 0
1(
1,
#472
0(
0,
#476
b1100000 3
b10 4
b0 :
b11 ;
16
1%
b0 0
1(
1,
#480
0(
0,
#484
b1 0
1(
1,
#488
0(
0,
#492
b10 0
1(
1,
#496
0(
0,
#500
b11 0
1(
1,
#504
0(
0,
#508
b0 :
b10 ;
b1100000 3
b1 4
06
0%
b0 0
1(
1,
#512
0(
0,
#516
b1 0
1(
1,
#520
0(
0,
#524
b10 0
1(
1,
#528
0(
0,
#532
b11 0
1(
1,
#536
0(
0,
#540
b1100000 3
b0 4
15
1"
b0 :
b1 ;
16
1%
b0 0
1(
1,
#544
0(
0,
#548
b1 0
1(
1,
#552
0(
0,
#556
b10 0
1(
1,
#560
0(
0,
#564
b11 0
1(
1,
#568
0(
0,
#572
b10 :
b0 ;
1<
1!
b11 7
05
0"
06
0%
b0 0
1(
1,
#576
0(
0,
#580
b1 0
1(
1,
#584
0(
0,
#588
b10 0
1(
1,
#592
0(
0,
#596
b11 0
1(
1,
#600
0(
0,
#604
b0 7
11
1&
b111 4
b0 3
b1100000 2
b1100000 #
b10 :
b11111111 ;
b11 =
16
1%
b0 0
1(
1,
#608
0(
0,
#612
b1 0
1(
1,
#616
0(
0,
#620
b10 0
1(
1,
#624
0(
0,
#628
b11 0
1(
1,
#632
0(
0,
#636
b0 =
b111 ;
b0 :
b10 9
b10 $
b1 7
06
0%
b0 0
1(
1,
#640
0(
0,
#644
b1 0
1(
1,
#648
0(
0,
#652
b10 0
1(
1,
#656
0(
0,
#660
b11 0
1(
1,
#664
0(
0,
#668
b10 7
b110 4
01
0&
16
1%
b0 0
1(
1,
#672
0(
0,
#676
b1 0
1(
1,
#680
0(
0,
#684
b10 0
1(
1,
#688
0(
0,
#692
b11 0
1(
1,
#696
0(
0,
#700
b10 =
b110 ;
b0 :
b1000000 3
b101 4
06
0%
b0 0
1(
1,
#704
0(
0,
#708
b1 0
1(
1,
#712
0(
0,
#716
b10 0
1(
1,
#720
0(
0,
#724
b11 0
1(
1,
#728
0(
0,
#732
b1100000 3
b100 4
b0 :
b101 ;
0<
0!
16
1%
b0 0
1(
1,
#736
0(
0,
#740
b1 0
1(
1,
#744
0(
0,
#748
b10 0
1(
1,
#752
0(
0,
#756
b11 0
1(
1,
#760
0(
0,
#764
b0 :
b100 ;
b1100000 3
b11 4
06
0%
b0 0
1(
1,
#768
0(
0,
#772
b1 0
1(
1,
#776
0(
0,
#780
b10 0
1(
1,
#784
0(
0,
#788
b11 0
1(
1,
#792
0(
0,
#796
b1100000 3
b10 4
b0 :
b11 ;
16
1%
b0 0
1(
1,
#800
0(
0,
#804
b1 0
1(
1,
#808
0(
0,
#812
b10 0
1(
1,
#816
0(
0,
#820
b11 0
1(
1,
#824
0(
0,
#828
b0 :
b10 ;
b1100000 3
b1 4
06
0%
b0 0
1(
1,
#832
0(
0,
#836
b1 0
1(
1,
#840
0(
0,
#844
b10 0
1(
1,
#848
0(
0,
#852
b11 0
1(
1,
#856
0(
0,
#860
b1100000 3
b0 4
15
1"
b0 :
b1 ;
16
1%
b0 0
1(
1,
#864
0(
0,
#868
b1 0
1(
1,
#872
0(
0,
#876
b10 0
1(
1,
#880
0(
0,
#884
b11 0
1(
1,
#888
0(
0,
#892
b10 :
b0 ;
1<
1!
b11 7
05
0"
06
0%
b0 0
1(
1,
#896
0(
0,
#900
b1 0
1(
1,
#904
0(
0,
#908
b10 0
1(
1,
#912
0(
0,
#916
b11 0
1(
1,
#920
0(
0,
#924
b0 7
11
1&
b111 4
b0 3
b10 :
b11111111 ;
b11 =
16
1%
b0 0
1(
1,
#928
0(
0,
#932
b1 0
1(
1,
#936
0(
0,
#940
b10 0
1(
1,
#944
0(
0,
#948
b11 0
1(
1,
#952
0(
0,
#956
b0 =
b111 ;
b0 :
b1 7
06
0%
b0 0
1(
1,
#960
0(
0,
#964
b1 0
1(
1,
#968
0(
0,
#972
b10 0
1(
1,
#976
0(
0,
#980
b11 0
1(
1,
#984
0(
0,
#988
b10 7
b110 4
01
0&
16
1%
b0 0
1(
1,
#992
0(
0,
#996
b1 0
1(
1,
#1000
0(
0,
0*
0.
#1004
b10 0
1(
1,
#1008
0(
0,
#1012
b11 0
1(
1,
#1016
0(
0,
#1020
b10 =
b110 ;
b0 :
b1000000 3
b101 4
06
0%
b0 0
1(
1,
#1024
0(
0,
#1028
b1 0
1(
1,
#1032
0(
0,
#1036
b10 0
1(
1,
#1040
0(
0,
#1044
b11 0
1(
1,
#1048
0(
0,
#1052
b1100000 3
b100 4
b0 :
b101 ;
0<
0!
16
1%
b0 0
1(
1,
#1056
0(
0,
#1060
b1 0
1(
1,
#1064
0(
0,
#1068
b10 0
1(
1,
#1072
0(
0,
#1076
b11 0
1(
1,
#1080
0(
0,
#1084
b0 :
b100 ;
b1100000 3
b11 4
06
0%
b0 0
1(
1,
#1088
0(
0,
#1092
b1 0
1(
1,
#1096
0(
0,
#1100
b10 0
1(
1,
